Sequntial/Register Set/Reg_set.vcd
$date
	Sat Feb 08 11:31:54 2025
$end
$version
	Icarus Verilog
$end
$timescale
	1ps
$end
$scope module Reg_set_tb $end
$var wire 8 ! Q1 [7:0] $end
$var wire 8 " Q2 [7:0] $end
$var reg 1 # CLK $end
$var reg 8 $ D1 [7:0] $end
$var reg 8 % D2 [7:0] $end
$var reg 1 & RST $end
$scope module uut $end
$var wire 1 ' CLK $end
$var wire 8 ( D1 [7:0] $end
$var wire 8 ) D2 [7:0] $end
$var wire 1 * RST $end
$var reg 8 + Q1 [7:0] $end
$var reg 8 , Q2 [7:0] $end
$upscope $end
$upscope $end
$enddefinitions $end
#0
$dumpvars
bx ,
bx +
1*
b0 )
b0 (
0'
1&
b0 %
b0 $
0#
bx "
bx !
$end
#5000
b0 ,
b0 "
b0 +
b0 !
1#
1'
#10000
0#
0'
#15000
1#
1'
#20000
0#
0'
0&
0*
#25000
1#
1'
#30000
0#
0'
b1010101 %
b1010101 )
b10101010 $
b10101010 (
#35000
b1010101 ,
b1010101 "
b10101010 +
b10101010 !
1#
1'
#40000
0#
0'
b1111 %
b1111 )
b11110000 $
b11110000 (
#45000
b1111 ,
b1111 "
b11110000 +
b11110000 !
1#
1'
#50000
0#
0'
1&
1*
#55000
b0 ,
b0 "
b0 +
b0 !
1#
1'
#60000
0#
0'
0&
0*
#65000
b1111 ,
b1111 "
b11110000 +
b11110000 !
1#
1'
#70000
0#
0'
b110011 %
b110011 )
b11001100 $
b11001100 (
#75000
b110011 ,
b110011 "
b11001100 +
b11001100 !
1#
1'
